{
    "pagination": {
        "total": 119817,
        "limit": 12,
        "offset": 0,
        "total_pages": 9985,
        "current_page": 1,
        "next_url": "https://api.artic.edu/api/v1/artworks?page=2"
    },
    "info": {
        "license_text": "The data in this response is licensed under a Creative Commons Zero (CC0) 1.0 designation and the Terms and Conditions of artic.edu.",
        "license_links": [
            "https://creativecommons.org/publicdomain/zero/1.0/",
            "https://www.artic.edu/terms"
        ],
        "version": "1.8"
    },
    "config": {
        "iiif_url": "https://www.artic.edu/iiif/2",
        "website_url": "http://www.artic.edu"
    }
}
